%!Adobe-FontList 1.14
%Locale:0x409

%BeginFont
Handler:DirectoryHandler
FontType:Type1
FontName:AdobeArabic-Regular
FamilyName:Adobe Arabic
StyleName:Regular
MenuName:Adobe Arabic
StyleBits:0
WeightClass:400
WidthClass:5
AngleClass:0
FullName:Adobe Arabic Regular
FamilyNameNative:
StyleNameNative:Regular
FullNameNative:
WritingScript:Arabic
OutlineFileName:\AdobeArabic-Regular.otf
DataFormat:sfntData
UsesStandardEncoding:yes
isCFF:yes
FileLength:300140
FileModTime:1377017469
%EndFont

%BeginFont
Handler:DirectoryHandler
FontType:Suitcase
FontName:Cocon-BoldCondensed
OutlineFileName:\Cocon-BoldCondensed
ResourceID:14990
MacStyle:0
FileLength:19554
FileModTime:1304333204
%EndFont

%BeginFont
Handler:DirectoryHandler
FontType:Suitcase
FontName:Cocon-LightCondensed
OutlineFileName:\Cocon-LightCondensed
ResourceID:14988
MacStyle:0
FileLength:17759
FileModTime:1304333205
%EndFont

%BeginFont
Handler:DirectoryHandler
FontType:Suitcase
FontName:Cocon-RegularCondensed
OutlineFileName:\Cocon-RegularCondensed
ResourceID:14989
MacStyle:0
FileLength:21130
FileModTime:1304333204
%EndFont

%BeginFont
Handler:DirectoryHandler
FontType:Type1
FontName:Cocon-BoldCondensed
FamilyName:Cocon
StyleName:Bold Condensed
MenuName:Cocon
StyleBits:2
WeightClass:700
WidthClass:3
AngleClass:0
FullName:Cocon-BoldCondensed
WritingScript:Roman
OutlineFileName:\CoconBolCon
DataFormat:POSTResource
UsesStandardEncoding:yes
isCFF:no
FileLength:46930
FileModTime:985922112
DesignSize:-1
%EndFont

%BeginFont
Handler:DirectoryHandler
FontType:Type1
FontName:Cocon-LightCondensed
FamilyName:Cocon
StyleName:Light Condensed
MenuName:Cocon
StyleBits:0
WeightClass:300
WidthClass:3
AngleClass:0
FullName:Cocon-LightCondensed
WritingScript:Roman
OutlineFileName:\CoconLigCon
DataFormat:POSTResource
UsesStandardEncoding:yes
isCFF:no
FileLength:43823
FileModTime:985922112
DesignSize:-1
%EndFont

%BeginFont
Handler:DirectoryHandler
FontType:Type1
FontName:Cocon-RegularCondensed
FamilyName:Cocon
StyleName:RegularCondensed
MenuName:Cocon
StyleBits:0
WeightClass:400
WidthClass:3
AngleClass:0
FullName:Cocon-RegularCondensed
WritingScript:Roman
OutlineFileName:\CoconRegCon
DataFormat:POSTResource
UsesStandardEncoding:yes
isCFF:no
FileLength:38422
FileModTime:892832800
DesignSize:-1
%EndFont

